{
  "tableName" : "ad_chart_filter",
  "rows" : [ {
    "displayed" : true,
    "valuemax" : null,
    "seqno" : 10,
    "save_type" : "NO",
    "id_client" : "0",
    "valuedefault" : "@14_daysago@",
    "created" : "2016-09-28 13:54:55",
    "id_reference_value" : null,
    "displaylogic" : null,
    "active" : true,
    "id_reference" : "51C849B7BD0911E4A564BC5FF4671DB4",
    "description" : null,
    "caption" : "Fecha",
    "id_tab" : "ff808181576f862301576f895b160000",
    "valuedefault_2" : "@today@",
    "mandatory" : true,
    "created_by" : "100",
    "id_module" : "D351EB083EC7E8C4891CD7B25B1E274E",
    "valuemin" : null,
    "ranged" : true,
    "id_chart_filter" : "ff80818157709b8a015770a5c7ae0034",
    "name" : "date",
    "updated_by" : "ff8081815f7df12d015f7dfc6b780000",
    "updated" : "2017-10-02 14:37:54"
  } ]
}