{
  "tableName" : "ad_user_roles",
  "rows" : [ {
    "id_module" : "D351EB083EC7E8C4891CD7B25B1E274E",
    "id_client" : "C5DF0280DEE20D3D6B81F347F4EDBFFA",
    "created" : "2017-11-02 19:28:16",
    "updated_by" : "ff8081815f7df12d015f7dfc6b780000",
    "id_role" : "BC5737B4F3908B41193EEFCC3F1E9884",
    "active" : true,
    "id_user" : "ff8081815f7df12d015f7dfc6b780000",
    "updated" : "2017-11-02 19:28:24",
    "created_by" : "100",
    "id_user_roles" : "ff8081815f7df12d015f7dfda70c0001"
  } ]
}