{
  "tableName" : "ad_file",
  "columns" : [ {
    "name" : "active",
    "cType" : "BOOLEAN",
    "primaryKey" : false
  }, {
    "name" : "caption",
    "cType" : "STRING",
    "primaryKey" : false
  }, {
    "name" : "category",
    "cType" : "STRING",
    "primaryKey" : false
  }, {
    "name" : "created",
    "cType" : "DATETIME",
    "primaryKey" : false
  }, {
    "name" : "created_by",
    "cType" : "STRING",
    "primaryKey" : false
  }, {
    "name" : "description",
    "cType" : "STRING",
    "primaryKey" : false
  }, {
    "name" : "filesize",
    "cType" : "INTEGER",
    "primaryKey" : false
  }, {
    "name" : "id_client",
    "cType" : "STRING",
    "primaryKey" : false
  }, {
    "name" : "id_file",
    "cType" : "STRING",
    "primaryKey" : true
  }, {
    "name" : "id_module",
    "cType" : "STRING",
    "primaryKey" : false
  }, {
    "name" : "id_row",
    "cType" : "STRING",
    "primaryKey" : false
  }, {
    "name" : "id_table",
    "cType" : "STRING",
    "primaryKey" : false
  }, {
    "name" : "mimetype",
    "cType" : "STRING",
    "primaryKey" : false
  }, {
    "name" : "name",
    "cType" : "STRING",
    "primaryKey" : false
  }, {
    "name" : "seqno",
    "cType" : "INTEGER",
    "primaryKey" : false
  }, {
    "name" : "updated",
    "cType" : "DATETIME",
    "primaryKey" : false
  }, {
    "name" : "updated_by",
    "cType" : "STRING",
    "primaryKey" : false
  } ]
}