{
  "tableName" : "ad_table_action",
  "columns" : [ {
    "name" : "active",
    "cType" : "BOOLEAN",
    "primaryKey" : false
  }, {
    "name" : "atype",
    "cType" : "STRING",
    "primaryKey" : false
  }, {
    "name" : "created",
    "cType" : "DATE",
    "primaryKey" : false
  }, {
    "name" : "created_by",
    "cType" : "STRING",
    "primaryKey" : false
  }, {
    "name" : "displaylogic",
    "cType" : "STRING",
    "primaryKey" : false
  }, {
    "name" : "icon",
    "cType" : "STRING",
    "primaryKey" : false
  }, {
    "name" : "id_client",
    "cType" : "STRING",
    "primaryKey" : false
  }, {
    "name" : "id_module",
    "cType" : "STRING",
    "primaryKey" : false
  }, {
    "name" : "id_process",
    "cType" : "STRING",
    "primaryKey" : false
  }, {
    "name" : "id_table",
    "cType" : "STRING",
    "primaryKey" : false
  }, {
    "name" : "id_table_action",
    "cType" : "STRING",
    "primaryKey" : true
  }, {
    "name" : "id_window",
    "cType" : "STRING",
    "primaryKey" : false
  }, {
    "name" : "name",
    "cType" : "STRING",
    "primaryKey" : false
  }, {
    "name" : "privilege",
    "cType" : "STRING",
    "primaryKey" : false
  }, {
    "name" : "privilege_desc",
    "cType" : "TEXT",
    "primaryKey" : false
  }, {
    "name" : "rest_command",
    "cType" : "STRING",
    "primaryKey" : false
  }, {
    "name" : "seqno",
    "cType" : "INTEGER",
    "primaryKey" : false
  }, {
    "name" : "target",
    "cType" : "STRING",
    "primaryKey" : false
  }, {
    "name" : "uipattern",
    "cType" : "STRING",
    "primaryKey" : false
  }, {
    "name" : "updated",
    "cType" : "DATE",
    "primaryKey" : false
  }, {
    "name" : "updated_by",
    "cType" : "STRING",
    "primaryKey" : false
  }, {
    "name" : "url",
    "cType" : "STRING",
    "primaryKey" : false
  } ]
}